\relax 
\providecommand\hyper@newdestlabel[2]{}
\providecommand\HyperFirstAtBeginDocument{\AtBeginDocument}
\HyperFirstAtBeginDocument{\ifx\hyper@anchor\@undefined
\global\let\oldcontentsline\contentsline
\gdef\contentsline#1#2#3#4{\oldcontentsline{#1}{#2}{#3}}
\global\let\oldnewlabel\newlabel
\gdef\newlabel#1#2{\newlabelxx{#1}#2}
\gdef\newlabelxx#1#2#3#4#5#6{\oldnewlabel{#1}{{#2}{#3}}}
\AtEndDocument{\ifx\hyper@anchor\@undefined
\let\contentsline\oldcontentsline
\let\newlabel\oldnewlabel
\fi}
\fi}
\global\let\hyper@last\relax 
\gdef\HyperFirstAtBeginDocument#1{#1}
\providecommand\HyField@AuxAddToFields[1]{}
\providecommand\HyField@AuxAddToCoFields[2]{}
\@writefile{toc}{\contentsline {section}{\numberline {1}Findings}{3}{section.1}}
\@writefile{toc}{\contentsline {subsection}{\numberline {1.1}Branch Prediction}{3}{subsection.1.1}}
\@writefile{toc}{\contentsline {subsection}{\numberline {1.2}Processor Width}{4}{subsection.1.2}}
\@writefile{toc}{\contentsline {subsection}{\numberline {1.3}Ruu/Lsq}{6}{subsection.1.3}}
\@writefile{toc}{\contentsline {subsection}{\numberline {1.4}A Report on Experiments 1-3}{7}{subsection.1.4}}
\@writefile{toc}{\contentsline {subsubsection}{\numberline {1.4.1}Factor/s limiting IPC initially}{7}{subsubsection.1.4.1}}
\@writefile{toc}{\contentsline {subsubsection}{\numberline {1.4.2}Effect of Branch Prediction on IPC}{7}{subsubsection.1.4.2}}
\@writefile{toc}{\contentsline {subsubsection}{\numberline {1.4.3}Effect of Processor Width}{7}{subsubsection.1.4.3}}
\@writefile{toc}{\contentsline {subsubsection}{\numberline {1.4.4}Effect of ruu,lsq}{7}{subsubsection.1.4.4}}
\@writefile{toc}{\contentsline {subsubsection}{\numberline {1.4.5}Why IPC is hitting a wall with benchmarks that have the lowest improvements?}{8}{subsubsection.1.4.5}}
\@writefile{toc}{\contentsline {subsection}{\numberline {1.5}Cache Architecture Proposal}{8}{subsection.1.5}}
\@writefile{toc}{\contentsline {subsubsection}{\numberline {1.5.1}AMAT Calculation for Latencies}{8}{subsubsection.1.5.1}}
\@writefile{toc}{\contentsline {subsubsection}{\numberline {1.5.2}Cache Architecture Proposal}{8}{subsubsection.1.5.2}}
