\contentsline {section}{\numberline {1}Sandy Brigde Architecture}{3}{section.1}
\contentsline {section}{\numberline {2}How fibonacci works?}{4}{section.2}
\contentsline {section}{\numberline {3}Explanation of code in 2nd thread}{5}{section.3}
\contentsline {section}{\numberline {4}Performance Metrics}{6}{section.4}
\contentsline {section}{\numberline {5}References}{7}{section.5}
